<svg width="27" height="27" viewBox="0 0 27 27" fill="none" xmlns="http://www.w3.org/2000/svg">
<path d="M11.5392 5.17452C11.4441 5.73431 11.1443 6.2799 10.6861 6.73455L6.9225 10.4599C6.40089 10.9742 5.68908 11.2555 4.94558 11.2555C4.20207 11.2555 3.49026 10.9742 2.96866 10.4599L0.158892 7.70069L0.141602 0.0170495L7.93689 0L10.7495 2.77339C11.3979 3.41274 11.6832 4.28511 11.5392 5.17452Z" fill="#FFF000"/>
<path d="M27.0001 26.4522L19.2076 26.4664L16.3921 23.6931C15.7437 23.0537 15.4584 22.1813 15.6025 21.2919C15.6976 20.7293 15.9829 20.1837 16.4555 19.7319L20.1385 16.0833C20.6745 15.569 21.3402 15.2564 22.0203 15.2109H22.1961C22.954 15.2109 23.6514 15.4923 24.173 16.0208L26.9856 18.78L27.0001 26.4494V26.4522Z" fill="#FFF000"/>
<path d="M26.9857 0.0170898V7.68652L24.2509 10.3832C23.7292 10.9117 23.0491 11.2243 22.369 11.2556C21.5477 11.3181 20.7869 11.0225 20.2192 10.4599L19.7437 9.99389L7.66605 21.903L11.1905 20.36C11.8245 21.4341 11.6487 22.8066 10.7496 23.696L7.95135 26.4694L0.158936 26.4836V18.7829L2.89377 16.0862C3.41538 15.5549 4.0782 15.2451 4.7583 15.2139C4.8217 15.2139 4.8851 15.1997 4.9485 15.1997C5.69201 15.1997 6.38652 15.4952 6.92542 16.0095L7.39804 16.4784L19.4757 4.56931L15.9512 6.11229C15.6659 5.64627 15.5391 5.11489 15.5708 4.56931C15.617 3.89869 15.934 3.22808 16.4556 2.71375L19.1933 0.0170898H26.9857Z" fill="#FFF000"/>
</svg>
